16,16,3,0.1134,0.1752
16,32,3,0.08398,0.1322
16,64,3,0.06683,0.1029
16,128,3,0.0419053,0.095
16,256,3,0.02803,0.07262
16,512,3,0.01864,0.07597
16,1024,3,0.01507,0.07161
16,2048,3,0.01160,0.07411
16,4096,3,0.007804,0.07316
16,8192,3,0.004500,0.07255
