Experiment run. n, avg. abs.error, avg. rel. error, percentage rel.error<=1
10000,6.28536,0.356387,0.9723
10000,11.6781,0.619782,0.869
10000,6.68012,0.342862,0.9376
10000,11.9766,0.494534,0.7414
Experiment run. n, avg. abs.error, avg. rel. error, percentage rel.error<=1
10000,6.43712,0.372085,0.971
10000,5.03055,0.29811,0.9823
10000,11.0103,0.606089,0.9426
10000,8.26202,0.45847,0.9536
Experiment run. n, avg. abs.error, avg. rel. error, percentage rel.error<=1
10000,5.59016,0.334579,0.9922
10000,17.5319,0.548418,0.5001
10000,28.2095,0.748001,0.1594
10000,7.57524,0.439296,0.9776
Experiment run. n, avg. abs.error, avg. rel. error, percentage rel.error<=1
10000,14.3315,0.58106,0.6367
10000,6.00749,0.350256,0.9745
10000,7.33282,0.35968,0.9065
10000,9.88009,0.56344,0.9603
Experiment run. n, avg. abs.error, avg. rel. error, percentage rel.error<=1
10000,3.76749,0.2796,0.9872
10000,4.45465,0.314953,0.9832
10000,4.36525,0.29153,0.9745
10000,4.55441,0.30577,0.9498
Experiment run. n, avg. abs.error, avg. rel. error, percentage rel.error<=1
10000,3.73168,0.274112,0.9946
10000,9.0401,0.611898,0.9804
10000,2.88288,0.217982,0.9946
10000,5.39392,0.371008,0.9966
Experiment run. n, avg. abs.error, avg. rel. error, percentage rel.error<=1
10000,3.19578,0.228472,0.9976
10000,13.3664,0.551531,0.5923
10000,4.1971,0.291217,0.9976
10000,10.0461,0.531097,0.8257
Experiment run. n, avg. abs.error, avg. rel. error, percentage rel.error<=1
10000,5.21899,0.359985,0.9794
10000,2.83603,0.205704,0.9986
10000,8.20857,0.40633,0.8273
10000,3.19846,0.241551,0.9976
Experiment run. n, avg. abs.error, avg. rel. error, percentage rel.error<=1
10000,2.80458,0.179148,1
10000,2.53343,0.165962,0.9994
10000,3.23144,0.208002,0.9982
10000,3.28236,0.200957,0.9996
Experiment run. n, avg. abs.error, avg. rel. error, percentage rel.error<=1
10000,4.59797,0.287246,0.9964
10000,5.81246,0.352317,0.999
10000,2.26634,0.143311,1
10000,4.38616,0.262566,0.9919
Experiment run. n, avg. abs.error, avg. rel. error, percentage rel.error<=1
10000,12.6242,0.586022,0.7415
10000,5.25059,0.312966,0.9914
10000,6.66323,0.396321,0.9998
10000,7.87291,0.407085,0.9051
Experiment run. n, avg. abs.error, avg. rel. error, percentage rel.error<=1
10000,2.56461,0.160838,0.9996
10000,7.28924,0.412971,0.9811
10000,5.11278,0.297905,0.9728
10000,3.04733,0.193818,0.9986
Experiment run. n, avg. abs.error, avg. rel. error, percentage rel.error<=1
10000,3.18196,0.193632,1
10000,8.32603,0.489738,0.9658
10000,2.0127,0.12436,1
10000,3.06183,0.188343,0.9998
Experiment run. n, avg. abs.error, avg. rel. error, percentage rel.error<=1
10000,3.55566,0.219404,0.9998
10000,2.44221,0.149244,1
10000,4.51939,0.25807,0.9992
10000,4.02412,0.245512,0.999
Experiment run. n, avg. abs.error, avg. rel. error, percentage rel.error<=1
10000,2.12002,0.131192,1
10000,1.83765,0.115012,1
10000,5.34352,0.327815,0.9976
10000,2.25851,0.137255,1
Experiment run. n, avg. abs.error, avg. rel. error, percentage rel.error<=1
10000,3.26063,0.199185,1
10000,4.79537,0.286367,1
10000,2.72756,0.16438,1
10000,3.08085,0.184916,1
Experiment run. n, avg. abs.error, avg. rel. error, percentage rel.error<=1
10000,2.19506,0.133681,1
10000,3.19128,0.190472,1
10000,2.74363,0.156398,1
10000,1.37169,0.0831149,1
Experiment run. n, avg. abs.error, avg. rel. error, percentage rel.error<=1
10000,7.82624,0.449453,1
10000,2.1751,0.127826,1
10000,3.70466,0.218237,1
10000,5.23683,0.304503,1
Experiment run. n, avg. abs.error, avg. rel. error, percentage rel.error<=1
10000,6.41175,0.383975,0.9988
10000,2.08521,0.126897,1
10000,1.32601,0.0841464,1
10000,2.0351,0.123954,1
Experiment run. n, avg. abs.error, avg. rel. error, percentage rel.error<=1
10000,2.8216,0.168586,1
10000,3.23668,0.191447,1
10000,3.83847,0.225767,1
10000,1.34589,0.0835535,1
Experiment run. n, avg. abs.error, avg. rel. error, percentage rel.error<=1
10000,1.37748,0.0812021,1
10000,1.16958,0.0689824,1
10000,2.26006,0.133675,1
10000,2.32918,0.132733,1
Experiment run. n, avg. abs.error, avg. rel. error, percentage rel.error<=1
10000,1.8035,0.10366,1
10000,2.13439,0.123802,1
10000,0.842834,0.0516268,1
10000,0.847873,0.0506712,1
Experiment run. n, avg. abs.error, avg. rel. error, percentage rel.error<=1
10000,1.06282,0.0634052,1
10000,1.66165,0.0991061,1
10000,0.978682,0.0606615,1
10000,0.854277,0.0524337,1
Experiment run. n, avg. abs.error, avg. rel. error, percentage rel.error<=1
10000,1.57462,0.0934553,1
10000,2.31362,0.130652,1
10000,1.14462,0.0705718,1
10000,1.04914,0.0631055,1
Experiment run. n, avg. abs.error, avg. rel. error, percentage rel.error<=1
10000,0.971747,0.0619495,1
10000,0.554318,0.0351137,1
10000,0.60915,0.0383805,1
10000,2.18886,0.135365,1
Experiment run. n, avg. abs.error, avg. rel. error, percentage rel.error<=1
10000,1.02606,0.062654,1
10000,0.581023,0.0371202,1
10000,0.733246,0.0486076,1
10000,0.503128,0.031269,1
Experiment run. n, avg. abs.error, avg. rel. error, percentage rel.error<=1
10000,0.687582,0.0441052,1
10000,1.09115,0.069634,1
10000,2.95214,0.180757,1
10000,1.15317,0.0715736,1
Experiment run. n, avg. abs.error, avg. rel. error, percentage rel.error<=1
10000,0.797687,0.04907,1
10000,0.671657,0.0420435,1
10000,2.63964,0.160282,1
10000,1.66506,0.104048,1
Experiment run. n, avg. abs.error, avg. rel. error, percentage rel.error<=1
10000,0.366943,0.0242402,1
10000,0.712628,0.0486177,1
10000,0.660908,0.0461867,1
10000,0.372893,0.0258365,1
Experiment run. n, avg. abs.error, avg. rel. error, percentage rel.error<=1
10000,0.361753,0.025292,1
10000,0.428746,0.0299266,1
10000,0.392279,0.0268261,1
10000,0.353109,0.0253,1
Experiment run. n, avg. abs.error, avg. rel. error, percentage rel.error<=1
10000,0.257236,0.0184153,1
10000,0.247696,0.0168904,1
10000,0.227952,0.0157907,1
10000,0.236562,0.0162466,1
Experiment run. n, avg. abs.error, avg. rel. error, percentage rel.error<=1
10000,0.319657,0.0221661,1
10000,0.536753,0.0393686,1
10000,0.258533,0.0183997,1
10000,0.663434,0.0451272,1
Experiment run. n, avg. abs.error, avg. rel. error, percentage rel.error<=1
10000,0.700874,0.0418328,1
10000,0.235548,0.0140196,1
10000,0.322559,0.0194967,1
10000,0.314044,0.020085,1
Experiment run. n, avg. abs.error, avg. rel. error, percentage rel.error<=1
10000,0.187557,0.0116604,1
10000,0.413147,0.024733,1
10000,0.51806,0.0325926,1
10000,2.31088,0.135577,1
Experiment run. n, avg. abs.error, avg. rel. error, percentage rel.error<=1
10000,0.214992,0.0141343,1
10000,2.17301,0.131114,1
10000,0.160378,0.0100331,1
10000,0.227234,0.0144917,1
Experiment run. n, avg. abs.error, avg. rel. error, percentage rel.error<=1
10000,0.315558,0.0191237,1
10000,0.385784,0.0230363,1
10000,0.336543,0.0210187,1
10000,0.581003,0.0357126,1
Experiment run. n, avg. abs.error, avg. rel. error, percentage rel.error<=1
10000,0.45968,0.0251995,1
10000,0.407225,0.0223524,1
10000,0.354564,0.0193492,1
10000,0.28862,0.0153471,1
Experiment run. n, avg. abs.error, avg. rel. error, percentage rel.error<=1
10000,0.250565,0.0136413,1
10000,0.194688,0.0108739,1
10000,0.314429,0.0172173,1
10000,0.404465,0.0225093,1
Experiment run. n, avg. abs.error, avg. rel. error, percentage rel.error<=1
10000,0.249832,0.01417,1
10000,0.110843,0.00602883,1
10000,0.118141,0.00650424,1
10000,0.191646,0.0105522,1
Experiment run. n, avg. abs.error, avg. rel. error, percentage rel.error<=1
10000,0.189873,0.0105793,1
10000,0.426103,0.0233994,1
10000,0.273032,0.0154338,1
10000,0.329932,0.0186005,1
