<?xml version="1.0" encoding="UTF-8"?>
<svg xmlns="http://www.w3.org/2000/svg"
    xmlns:latexdraw="http://latexdraw.sourceforge.net/namespaces/latexdraw"
    version="1.1" baseProfile="full">
    <defs/>
    <g>
        <g latexdraw:type="square" id="id233">
            <rect x="201.0" y="31.0" width="68.0" height="68.0"
                latexdraw:borderPos="outer" stroke-width="2.0"
                stroke="black" fill="none"/>
        </g>
        <g latexdraw:type="text" id="id234"
            font-family="Times New Roman" fill="black" font-size="18" latexdraw:x="210.0">
            <text x="210.0" y="70.0"><![CDATA[$V_1$]]></text>
        </g>
        <g latexdraw:type="square" id="id237">
            <rect x="201.0" y="171.0" width="68.0" height="68.0"
                latexdraw:borderPos="outer" stroke-width="2.0"
                stroke="black" fill="none"/>
        </g>
        <g latexdraw:type="square" id="id238">
            <rect x="201.0" y="101.0" width="68.0" height="68.0"
                latexdraw:borderPos="outer" stroke-width="2.0"
                stroke="black" fill="none"/>
        </g>
        <g latexdraw:type="text" id="id239"
            font-family="Times New Roman" fill="black" font-size="18" latexdraw:x="150.0">
            <text x="150.0" y="70.0"><![CDATA[$d\{$]]></text>
        </g>
        <g latexdraw:type="text" id="id242"
            font-family="Times New Roman" fill="black" font-size="18" latexdraw:x="150.0">
            <text x="150.0" y="140.0"><![CDATA[$d\{$]]></text>
        </g>
        <g latexdraw:type="text" id="id245"
            font-family="Times New Roman" fill="black" font-size="18" latexdraw:x="150.0">
            <text x="150.0" y="210.0"><![CDATA[$d\{$]]></text>
        </g>
        <g latexdraw:type="text" id="id248"
            font-family="Times New Roman" fill="black" font-size="18" latexdraw:x="220.0">
            <text x="220.0" y="20.0"><![CDATA[$d$]]></text>
        </g>
        <g latexdraw:type="text" id="id251"
            font-family="Times New Roman" fill="black" font-size="18" latexdraw:x="10.0">
            <text x="10.0" y="140.0"><![CDATA[$V^{D x d} =$]]></text>
        </g>
        <g latexdraw:type="text" id="id254"
            font-family="Times New Roman" fill="black" font-size="18" latexdraw:x="210.0">
            <text x="210.0" y="140.0"><![CDATA[$V_2$]]></text>
        </g>
        <g latexdraw:type="text" id="id257"
            font-family="Times New Roman" fill="black" font-size="18" latexdraw:x="210.0">
            <text x="210.0" y="210.0"><![CDATA[$V_3$]]></text>
        </g>
    </g>
    <metadata>
        <latexdraw:metadata>
            <latexdraw:displayBorders>false</latexdraw:displayBorders>
            <latexdraw:autoAdjust>true</latexdraw:autoAdjust>
            <latexdraw:ppc>50</latexdraw:ppc>
            <latexdraw:zoom>1.0</latexdraw:zoom>
            <latexdraw:unit>cm</latexdraw:unit>
            <latexdraw:classicGrid>false</latexdraw:classicGrid>
            <latexdraw:gridGap>10</latexdraw:gridGap>
            <latexdraw:code>0</latexdraw:code>
            <latexdraw:displayGrid>true</latexdraw:displayGrid>
            <latexdraw:magneticGrid>true</latexdraw:magneticGrid>
            <latexdraw:autoUpdate>true</latexdraw:autoUpdate>
            <latexdraw:version>2.0.8</latexdraw:version>
            <latexdraw:size>
                <latexdraw:width>1682</latexdraw:width>
                <latexdraw:height>1055</latexdraw:height>
            </latexdraw:size>
            <latexdraw:position>
                <latexdraw:x>1279</latexdraw:x>
                <latexdraw:y>-4</latexdraw:y>
            </latexdraw:position>
            <latexdraw:dividerPosition>0.995243757431629</latexdraw:dividerPosition>
            <latexdraw:displayCodePanel>true</latexdraw:displayCodePanel>
            <latexdraw:displayXScale>true</latexdraw:displayXScale>
            <latexdraw:displayYScale>true</latexdraw:displayYScale>
            <latexdraw:delimitorOpacity>208</latexdraw:delimitorOpacity>
        </latexdraw:metadata>
    </metadata>
</svg>
